{
  "tables": {
    "settings": {
      "primary": "guild_id",
      "columns": {
        "guild_id": {
          "type": "text",
          "options": "PRIMARY KEY NOT NULL"
        },
        "prefix": {
          "type": "text",
          "options": ""
        },
        "volume": {
          "type": "integer",
          "options": "DEFAULT 100"
        },
        "channels": {
          "type": "text",
          "options": ""
        }
      }
    }
  }
}